{
    "KPackageStructure": "KWin/Effect",
    "KPlugin": {
        "Authors": [
            {
                "Email": "rivolaks@hot.ee, mgraesslin@kde.org",
                "Name": "Rivo Laks, Martin Gräßlin",
                "Name[ar]": "ريفو لاكس، مارتن جراجلين",
                "Name[be]": "Rivo Laks, Martin Gräßlin",
                "Name[bg]": "Rivo Laks, Martin Gräßlin",
                "Name[ca@valencia]": "Rivo Laks, Martin Gräßlin",
                "Name[ca]": "Rivo Laks, Martin Gräßlin",
                "Name[cs]": "Rivo Laks, Martin Gräßlin",
                "Name[de]": "Rivo Laks, Martin Gräßlin",
                "Name[en_GB]": "Rivo Laks, Martin Gräßlin",
                "Name[es]": "Rivo Laks, Martin Gräßlin",
                "Name[et]": "Rivo Laks, Martin Gräßlin",
                "Name[eu]": "Rivo Laks, Martin Gräßlin",
                "Name[fi]": "Rivo Laks, Martin Gräßlin",
                "Name[fr]": "Rivo Laks, Martin Gräßlin",
                "Name[ia]": "Rivo Laks, Martin Gräßlin",
                "Name[it]": "Rivo Laks, Martin Gräßlin",
                "Name[ja]": "Rivo Laks, Martin Gräßlin",
                "Name[ka]": "Rivo Laks, Martin Gräßlin",
                "Name[nl]": "Rivo Laks, Martin Gräßlin",
                "Name[nn]": "Rivo Laks, Martin Gräßlin",
                "Name[pl]": "Rivo Laks, Martin Gräßlin",
                "Name[pt]": "Rivo Laks, Martin Gräßlin",
                "Name[ru]": "Rivo Laks, Martin Gräßlin",
                "Name[sl]": "Rivo Laks, Martin Gräßlin",
                "Name[ta]": "ரிவோ லாக்சு, மார்ட்டின் கிராஸ்லின்",
                "Name[tr]": "Rivo Laks, Martin Gräßlin",
                "Name[uk]": "Rivo Laks, Martin Gräßlin",
                "Name[vi]": "Rivo Laks, Martin Gräßlin",
                "Name[x-test]": "xxRivo Laks, Martin Gräßlinxx",
                "Name[zh_CN]": "Rivo Laks, Martin Gräßlin",
                "Name[zh_TW]": "Rivo Laks, Martin Gräßlin"
            }
        ],
        "Category": "Focus",
        "Description": "Darkens the parent window of the currently active dialog",
        "Description[ar]": "تعتم النافذة المولدة للحوار النشط حالياً",
        "Description[be]": "Зацямненне бацькоўскага акна актыўнага дыялогавага акна",
        "Description[bg]": "Затъмняване на главния от активните прозорци",
        "Description[ca@valencia]": "Enfosquix la finestra principal del diàleg actualment actiu",
        "Description[ca]": "Enfosqueix la finestra principal del diàleg actualment actiu",
        "Description[cs]": "Ztmaví okno nadřazené aktivnímu dialogu",
        "Description[de]": "Dunkelt das Eltern-Fenster des aktiven Dialogs ab",
        "Description[en_GB]": "Darkens the parent window of the currently active dialog",
        "Description[es]": "Oscurece la ventana padre del diálogo activo",
        "Description[et]": "Tumendab aktiivse dialoogi eellasakna",
        "Description[eu]": "Unean aktibo dagoen elkarrizketa-koadroaren guraso leihoa iluntzen du",
        "Description[fi]": "Tummentaa aktiivisen kyselyikkunan emoikkunan",
        "Description[fr]": "Assombrit la fenêtre parente de la boîte de dialogue actuellement active.",
        "Description[ia]": "Il obscura le fenestra genitor del dialogo currentemente active",
        "Description[it]": "Scurisce la finestra madre di quella attiva",
        "Description[ja]": "アクティブなダイアログの親ウィンドウを暗くします",
        "Description[nl]": "Maakt het venster dat bij de ouder van de actieve dialoog hoort donkerder",
        "Description[nn]": "Gjer foreldrevindauget til det aktive dialogvindauget mørkare",
        "Description[pl]": "Przyciemnia nadrzędne okna obecnie aktywnego okna dialogowego",
        "Description[pt]": "Escurece a janela-mãe da janela activa de momento",
        "Description[ru]": "Затемнение основного окна при показе диалога",
        "Description[sl]": "Potemni nadrejeno okno trenutno dejavnega okna",
        "Description[ta]": "தற்போது செயலில் உள்ள துணை சாளரத்தின் தாய் சாளரத்தை இருளாக்கும்",
        "Description[tr]": "Geçerli etkin iletişim kutusunun üst penceresini karartır",
        "Description[uk]": "Затемнення батьківських вікон активних діалогових вікон",
        "Description[vi]": "Làm tối cửa sổ cha của hộp thoại hiện đang hoạt động",
        "Description[x-test]": "xxDarkens the parent window of the currently active dialogxx",
        "Description[zh_CN]": "当前活动对话框的父窗口将会变暗",
        "Description[zh_TW]": "將目前對話框的親視窗變暗",
        "EnabledByDefault": true,
        "Icon": "preferences-system-windows-effect-dialog-parent",
        "Id": "dialogparent",
        "License": "GPL",
        "Name": "Dialog Parent",
        "Name[ar]": "مولدة الحوار",
        "Name[be]": "Бацькоўскае акно",
        "Name[bg]": "Основен прозорец",
        "Name[ca@valencia]": "Diàleg principal",
        "Name[ca]": "Diàleg principal",
        "Name[cs]": "Předek dialogu",
        "Name[de]": "Eltern-Fenster abdunkeln",
        "Name[en_GB]": "Dialog Parent",
        "Name[es]": "Ventana padre del diálogo",
        "Name[et]": "Dialoogi eellane",
        "Name[eu]": "Guraso elkarrizketa-koadroa",
        "Name[fi]": "Kyselyikkunan emoikkuna",
        "Name[fr]": "Boîte de dialogue parente",
        "Name[ia]": "Dialogo genitor",
        "Name[it]": "Finestra madre",
        "Name[ja]": "ダイアログの親",
        "Name[ka]": "ფანჯრის მშობელი",
        "Name[nl]": "Dialoogeigenaar",
        "Name[nn]": "Mørklegg foreldrevindauge",
        "Name[pl]": "Rodzic okna dialogowego",
        "Name[pt]": "Pai da Janela",
        "Name[ru]": "Затемнение основного окна",
        "Name[sl]": "Nadrejeno pogovorno okno",
        "Name[ta]": "துணை சாளரத்தின் தாய்",
        "Name[tr]": "Üst İletişim Kutusu",
        "Name[uk]": "Батьківське вікно",
        "Name[vi]": "Cha hộp thoại",
        "Name[x-test]": "xxDialog Parentxx",
        "Name[zh_CN]": "对话框父级窗口变暗",
        "Name[zh_TW]": "對話框上層",
        "Version": "0.1.0"
    },
    "X-KDE-Ordering": "70",
    "X-Plasma-API": "javascript",
    "X-Plasma-MainScript": "code/main.js"
}
